…
``` r
flights1 = flights %>%
  mutate(delay = case_when(dep_delay > 0 ~ 1, TRUE ~ 0), 
         delay_avg = case_when(dep_delay < 0 ~ "no delay", (dep_delay > 0 & dep_delay <= 3) ~ "0-3", (dep_delay > 3 & dep_delay <= 6) ~ "3-6", (dep_delay > 6 & dep_delay <= 9) ~ "6-9", (dep_delay > 9 & dep_delay <= 12) ~ "9-12", dep_delay > 12 ~ ">12"), 
         season = case_when(month %in% c(3, 4, 5) ~ "Spring", month %in% c(6, 7, 8) ~ "Summer", month %in% c(9, 10, 11) ~ "Autumn", month %in% c(12, 1, 2) ~ "Winter")) 

flights1
```

    ## # A tibble: 336,776 x 22
    ##     year month   day dep_time sched_dep_time dep_delay arr_time sched_arr_time
    ##    <int> <int> <int>    <int>          <int>     <dbl>    <int>          <int>
    ##  1  2013     1     1      517            515         2      830            819
    ##  2  2013     1     1      533            529         4      850            830
    ##  3  2013     1     1      542            540         2      923            850
    ##  4  2013     1     1      544            545        -1     1004           1022
    ##  5  2013     1     1      554            600        -6      812            837
    ##  6  2013     1     1      554            558        -4      740            728
    ##  7  2013     1     1      555            600        -5      913            854
    ##  8  2013     1     1      557            600        -3      709            723
    ##  9  2013     1     1      557            600        -3      838            846
    ## 10  2013     1     1      558            600        -2      753            745
    ## # … with 336,766 more rows, and 14 more variables: arr_delay <dbl>,
    ## #   carrier <chr>, flight <int>, tailnum <chr>, origin <chr>, dest <chr>,
    ## #   air_time <dbl>, distance <dbl>, hour <dbl>, minute <dbl>, time_hour <dttm>,
    ## #   delay <dbl>, delay_avg <chr>, season <chr>
…
